FPGA/projekt/square_pipe.vcd
$date
	Sun Jan 11 18:35:34 2026
$end
$version
	Icarus Verilog
$end
$timescale
	1ps
$end
$scope module tb_square_pipe $end
$var wire 256 ! square [255:0] $end
$var wire 1 " done $end
$var reg 128 # a [127:0] $end
$var reg 1 $ clk $end
$var reg 1 % rst $end
$var reg 1 & start $end
$scope module uut $end
$var wire 128 ' a [127:0] $end
$var wire 1 $ clk $end
$var wire 1 % rst $end
$var wire 1 & start $end
$var reg 1 " done $end
$var reg 256 ( square [255:0] $end
$var reg 128 ) stage1_reg [127:0] $end
$var reg 1 * stage1_valid $end
$var reg 256 + stage2_reg [255:0] $end
$var reg 1 , stage2_valid $end
$upscope $end
$upscope $end
$enddefinitions $end
$comment Show the parameter values. $end
$dumpall
$end
#0
$dumpvars
0,
b0 +
0*
b0 )
b0 (
b0 '
0&
1%
0$
b0 #
0"
b0 !
$end
#5000
1$
#10000
0$
#15000
1$
#20000
0$
1&
b11 #
b11 '
0%
#25000
1*
b11 )
1$
#30000
0$
0&
#35000
1,
b1001 +
0*
1$
#40000
0$
#45000
1"
b1001 !
b1001 (
0,
1$
#50000
0$
#55000
0"
1*
b11000000111001 )
1$
1&
b11000000111001 #
b11000000111001 '
#60000
0$
#65000
1,
b1001000101010110110010110001 +
0*
1$
0&
#70000
0$
#75000
1"
b1001000101010110110010110001 !
b1001000101010110110010110001 (
0,
1$
#80000
0$
#85000
0"
1*
b1001000110100010101100111100010011010101111001101111011110000000100100011010001010110011110001001101010111100110111101111 )
1$
1&
b1001000110100010101100111100010011010101111001101111011110000000100100011010001010110011110001001101010111100110111101111 #
b1001000110100010101100111100010011010101111001101111011110000000100100011010001010110011110001001101010111100110111101111 '
#90000
0$
#95000
1,
b1010010110110011011011100001100111111011010101100110111001010100001111000110101100100100101011010100100100111101010111001010011010000111101110111111111100001100101000000111011101101110010100101111000100000100010010000111100101010010100100001 +
0*
1$
0&
#100000
0$
#105000
1"
b1010010110110011011011100001100111111011010101100110111001010100001111000110101100100100101011010100100100111101010111001010011010000111101110111111111100001100101000000111011101101110010100101111000100000100010010000111100101010010100100001 !
b1010010110110011011011100001100111111011010101100110111001010100001111000110101100100100101011010100100100111101010111001010011010000111101110111111111100001100101000000111011101101110010100101111000100000100010010000111100101010010100100001 (
0,
1$
#110000
0$
#115000
0"
1$
